<svg width="36" height="36" viewBox="0 0 36 36" fill="none" xmlns="http://www.w3.org/2000/svg">
<g filter="url(#filter0_d)">
<path d="M27.3334 15.3332C26.9798 15.3332 26.6407 15.4736 26.3906 15.7237C26.1406 15.9737 26.0001 16.3129 26.0001 16.6665V21.1732L24.0267 19.1998C23.33 18.5086 22.3883 18.1207 21.4067 18.1207C20.4252 18.1207 19.4835 18.5086 18.7867 19.1998L17.8534 20.1465L14.5467 16.8265C13.85 16.1352 12.9082 15.7473 11.9267 15.7473C10.9452 15.7473 10.0035 16.1352 9.30675 16.8265L7.33341 18.8132V11.3332C7.33341 10.9795 7.47389 10.6404 7.72394 10.3904C7.97399 10.1403 8.31313 9.99984 8.66675 9.99984H19.3334C19.687 9.99984 20.0262 9.85936 20.2762 9.60931C20.5263 9.35926 20.6667 9.02013 20.6667 8.6665C20.6667 8.31288 20.5263 7.97374 20.2762 7.7237C20.0262 7.47365 19.687 7.33317 19.3334 7.33317H8.66675C7.60588 7.33317 6.58847 7.7546 5.83832 8.50474C5.08818 9.25489 4.66675 10.2723 4.66675 11.3332V27.6265C4.67026 28.6085 5.06191 29.5493 5.75629 30.2436C6.45066 30.938 7.39143 31.3297 8.37341 31.3332H24.9601C25.3214 31.3303 25.6805 31.2764 26.0267 31.1732C26.7967 30.9572 27.4745 30.4946 27.9562 29.8564C28.4379 29.2181 28.6969 28.4395 28.6934 27.6398V16.6665C28.6935 16.4891 28.6581 16.3136 28.5894 16.15C28.5208 15.9865 28.4202 15.8383 28.2935 15.7141C28.1669 15.59 28.0167 15.4923 27.8519 15.4269C27.687 15.3615 27.5107 15.3296 27.3334 15.3332ZM8.66675 28.6665C8.31313 28.6665 7.97399 28.526 7.72394 28.276C7.47389 28.0259 7.33341 27.6868 7.33341 27.3332V22.5732L11.1867 18.7198C11.3816 18.5261 11.6453 18.4173 11.9201 18.4173C12.1949 18.4173 12.4585 18.5261 12.6534 18.7198L22.6134 28.6665H8.66675ZM26.0001 27.3332C25.9915 27.5914 25.9081 27.8415 25.7601 28.0532L19.7334 21.9998L20.6801 21.0665C20.7757 20.9689 20.8898 20.8914 21.0157 20.8385C21.1416 20.7856 21.2768 20.7584 21.4134 20.7584C21.55 20.7584 21.6852 20.7856 21.8111 20.8385C21.9371 20.8914 22.0512 20.9689 22.1467 21.0665L26.0001 24.9465V27.3332ZM30.0001 7.33317H28.6667V5.99984C28.6667 5.64622 28.5263 5.30708 28.2762 5.05703C28.0262 4.80698 27.687 4.6665 27.3334 4.6665C26.9798 4.6665 26.6407 4.80698 26.3906 5.05703C26.1406 5.30708 26.0001 5.64622 26.0001 5.99984V7.33317H24.6667C24.3131 7.33317 23.974 7.47365 23.7239 7.7237C23.4739 7.97374 23.3334 8.31288 23.3334 8.6665C23.3334 9.02013 23.4739 9.35926 23.7239 9.60931C23.974 9.85936 24.3131 9.99984 24.6667 9.99984H26.0001V11.3332C26.0001 11.6868 26.1406 12.0259 26.3906 12.276C26.6407 12.526 26.9798 12.6665 27.3334 12.6665C27.687 12.6665 28.0262 12.526 28.2762 12.276C28.5263 12.0259 28.6667 11.6868 28.6667 11.3332V9.99984H30.0001C30.3537 9.99984 30.6928 9.85936 30.9429 9.60931C31.1929 9.35926 31.3334 9.02013 31.3334 8.6665C31.3334 8.31288 31.1929 7.97374 30.9429 7.7237C30.6928 7.47365 30.3537 7.33317 30.0001 7.33317Z" fill="white"/>
<path d="M27.3334 15.3332C26.9798 15.3332 26.6407 15.4736 26.3906 15.7237C26.1406 15.9737 26.0001 16.3129 26.0001 16.6665V21.1732L24.0267 19.1998C23.33 18.5086 22.3883 18.1207 21.4067 18.1207C20.4252 18.1207 19.4835 18.5086 18.7867 19.1998L17.8534 20.1465L14.5467 16.8265C13.85 16.1352 12.9082 15.7473 11.9267 15.7473C10.9452 15.7473 10.0035 16.1352 9.30675 16.8265L7.33341 18.8132V11.3332C7.33341 10.9795 7.47389 10.6404 7.72394 10.3904C7.97399 10.1403 8.31313 9.99984 8.66675 9.99984H19.3334C19.687 9.99984 20.0262 9.85936 20.2762 9.60931C20.5263 9.35926 20.6667 9.02013 20.6667 8.6665C20.6667 8.31288 20.5263 7.97374 20.2762 7.7237C20.0262 7.47365 19.687 7.33317 19.3334 7.33317H8.66675C7.60588 7.33317 6.58847 7.7546 5.83832 8.50474C5.08818 9.25489 4.66675 10.2723 4.66675 11.3332V27.6265C4.67026 28.6085 5.06191 29.5493 5.75629 30.2436C6.45066 30.938 7.39143 31.3297 8.37341 31.3332H24.9601C25.3214 31.3303 25.6805 31.2764 26.0267 31.1732C26.7967 30.9572 27.4745 30.4946 27.9562 29.8564C28.4379 29.2181 28.6969 28.4395 28.6934 27.6398V16.6665C28.6935 16.4891 28.6581 16.3136 28.5894 16.15C28.5208 15.9865 28.4202 15.8383 28.2935 15.7141C28.1669 15.59 28.0167 15.4923 27.8519 15.4269C27.687 15.3615 27.5107 15.3296 27.3334 15.3332ZM8.66675 28.6665C8.31313 28.6665 7.97399 28.526 7.72394 28.276C7.47389 28.0259 7.33341 27.6868 7.33341 27.3332V22.5732L11.1867 18.7198C11.3816 18.5261 11.6453 18.4173 11.9201 18.4173C12.1949 18.4173 12.4585 18.5261 12.6534 18.7198L22.6134 28.6665H8.66675ZM26.0001 27.3332C25.9915 27.5914 25.9081 27.8415 25.7601 28.0532L19.7334 21.9998L20.6801 21.0665C20.7757 20.9689 20.8898 20.8914 21.0157 20.8385C21.1416 20.7856 21.2768 20.7584 21.4134 20.7584C21.55 20.7584 21.6852 20.7856 21.8111 20.8385C21.9371 20.8914 22.0512 20.9689 22.1467 21.0665L26.0001 24.9465V27.3332ZM30.0001 7.33317H28.6667V5.99984C28.6667 5.64622 28.5263 5.30708 28.2762 5.05703C28.0262 4.80698 27.687 4.6665 27.3334 4.6665C26.9798 4.6665 26.6407 4.80698 26.3906 5.05703C26.1406 5.30708 26.0001 5.64622 26.0001 5.99984V7.33317H24.6667C24.3131 7.33317 23.974 7.47365 23.7239 7.7237C23.4739 7.97374 23.3334 8.31288 23.3334 8.6665C23.3334 9.02013 23.4739 9.35926 23.7239 9.60931C23.974 9.85936 24.3131 9.99984 24.6667 9.99984H26.0001V11.3332C26.0001 11.6868 26.1406 12.0259 26.3906 12.276C26.6407 12.526 26.9798 12.6665 27.3334 12.6665C27.687 12.6665 28.0262 12.526 28.2762 12.276C28.5263 12.0259 28.6667 11.6868 28.6667 11.3332V9.99984H30.0001C30.3537 9.99984 30.6928 9.85936 30.9429 9.60931C31.1929 9.35926 31.3334 9.02013 31.3334 8.6665C31.3334 8.31288 31.1929 7.97374 30.9429 7.7237C30.6928 7.47365 30.3537 7.33317 30.0001 7.33317Z" fill="white"/>
</g>
<defs>
<filter id="filter0_d" x="-2" y="-2" width="40" height="40" filterUnits="userSpaceOnUse" color-interpolation-filters="sRGB">
<feFlood flood-opacity="0" result="BackgroundImageFix"/>
<feColorMatrix in="SourceAlpha" type="matrix" values="0 0 0 0 0 0 0 0 0 0 0 0 0 0 0 0 0 0 127 0" result="hardAlpha"/>
<feOffset/>
<feGaussianBlur stdDeviation="2"/>
<feColorMatrix type="matrix" values="0 0 0 0 0 0 0 0 0 0 0 0 0 0 0 0 0 0 0.25 0"/>
<feBlend mode="normal" in2="BackgroundImageFix" result="effect1_dropShadow"/>
<feBlend mode="normal" in="SourceGraphic" in2="effect1_dropShadow" result="shape"/>
</filter>
</defs>
</svg>
