<svg width="16" height="16" viewBox="0 0 16 16" fill="none" xmlns="http://www.w3.org/2000/svg">
<path d="M9.7906 7.67422L4.2561 6.69922V13.9037C4.25617 13.982 4.27165 14.0595 4.30166 14.1318C4.33167 14.204 4.37563 14.2697 4.43102 14.325C4.48641 14.3803 4.55215 14.4242 4.62449 14.454C4.69682 14.4839 4.77434 14.4993 4.8526 14.4992H14.4026C14.481 14.4994 14.5586 14.4842 14.631 14.4543C14.7035 14.4245 14.7693 14.3807 14.8248 14.3254C14.8803 14.2701 14.9244 14.2043 14.9544 14.132C14.9845 14.0596 15 13.9821 15.0001 13.9037V11.2492L9.7906 7.67422Z" fill="#185C37"/>
<path d="M9.7906 1.5H4.8526C4.77434 1.49993 4.69682 1.51529 4.62449 1.54518C4.55215 1.57507 4.48641 1.61891 4.43102 1.67421C4.37563 1.72951 4.33167 1.79517 4.30166 1.86746C4.27165 1.93974 4.25617 2.01723 4.2561 2.0955V4.75L9.7906 8L12.7211 8.975L15.0001 8V4.75L9.7906 1.5Z" fill="#21A366"/>
<path d="M4.2561 4.75H9.7906V8H4.2561V4.75Z" fill="#107C41"/>
<path opacity="0.1" d="M8.2171 4.09961H4.2561V12.2246H8.2171C8.37494 12.2238 8.5261 12.1609 8.63785 12.0494C8.7496 11.9379 8.81292 11.7869 8.8141 11.6291V4.69511C8.81292 4.53728 8.7496 4.38627 8.63785 4.2748C8.5261 4.16334 8.37494 4.10039 8.2171 4.09961Z" fill="black"/>
<path opacity="0.2" d="M7.8916 4.42578H4.2561V12.5508H7.8916C8.04944 12.55 8.2006 12.4871 8.31235 12.3756C8.4241 12.2641 8.48742 12.1131 8.4886 11.9553V5.02128C8.48742 4.86345 8.4241 4.71244 8.31235 4.60098C8.2006 4.48951 8.04944 4.42657 7.8916 4.42578Z" fill="black"/>
<path opacity="0.2" d="M7.8916 4.42578H4.2561V11.9008H7.8916C8.04944 11.9 8.2006 11.8371 8.31235 11.7256C8.4241 11.6141 8.48742 11.4631 8.4886 11.3053V5.02128C8.48742 4.86345 8.4241 4.71244 8.31235 4.60098C8.2006 4.48951 8.04944 4.42657 7.8916 4.42578Z" fill="black"/>
<path opacity="0.2" d="M7.5661 4.42578H4.2561V11.9008H7.5661C7.72394 11.9 7.8751 11.8371 7.98685 11.7256C8.0986 11.6141 8.16192 11.4631 8.1631 11.3053V5.02128C8.16192 4.86345 8.0986 4.71244 7.98685 4.60098C7.8751 4.48951 7.72394 4.42657 7.5661 4.42578Z" fill="black"/>
<path d="M1.597 4.42578H7.566C7.72411 4.42565 7.87581 4.4883 7.98776 4.59996C8.0997 4.71163 8.16273 4.86317 8.163 5.02128V10.9803C8.16273 11.1384 8.0997 11.2899 7.98776 11.4016C7.87581 11.5133 7.72411 11.5759 7.566 11.5758H1.597C1.51869 11.5759 1.44112 11.5606 1.36873 11.5307C1.29634 11.5009 1.23054 11.4571 1.17509 11.4017C1.11965 11.3464 1.07565 11.2808 1.04561 11.2084C1.01556 11.1361 1.00007 11.0586 1 10.9803V5.02128C1.00007 4.94297 1.01556 4.86544 1.04561 4.79313C1.07565 4.72081 1.11965 4.65512 1.17509 4.59982C1.23054 4.54451 1.29634 4.50068 1.36873 4.47081C1.44112 4.44095 1.51869 4.42565 1.597 4.42578Z" fill="url(#paint0_linear_2686:42371)"/>
<path d="M2.8501 9.9355L4.1056 7.9935L2.9556 6.0625H3.8791L4.5066 7.299C4.5646 7.416 4.6066 7.503 4.6256 7.561H4.6341C4.6751 7.467 4.7186 7.3765 4.7641 7.288L5.4351 6.0645H6.2851L5.1056 7.9845L6.3151 9.937H5.4106L4.6856 8.5815C4.65193 8.52322 4.62333 8.46216 4.6001 8.399H4.5881C4.56696 8.46054 4.53877 8.51943 4.5041 8.5745L3.7576 9.9355H2.8501Z" fill="white"/>
<path d="M14.403 1.5H9.79053V4.75H15V2.0955C15 2.01719 14.9845 1.93966 14.9544 1.86734C14.9244 1.79503 14.8804 1.72934 14.8249 1.67403C14.7695 1.61873 14.7037 1.5749 14.6313 1.54503C14.5589 1.51517 14.4813 1.49987 14.403 1.5Z" fill="#33C481"/>
<path d="M9.79053 8H15V11.25H9.79053V8Z" fill="#107C41"/>
<defs>
<linearGradient id="paint0_linear_2686:42371" x1="2.247" y1="3.95778" x2="6.916" y2="12.0438" gradientUnits="userSpaceOnUse">
<stop stop-color="#18884F"/>
<stop offset="0.5" stop-color="#117E43"/>
<stop offset="1" stop-color="#0B6631"/>
</linearGradient>
</defs>
</svg>
