<svg width="16" height="16" viewBox="0 0 16 16" fill="none" xmlns="http://www.w3.org/2000/svg">
<path d="M9.58039 2.00002H2.31169C2.28857 1.99971 2.2655 2.0025 2.24312 2.00834C2.22517 2.01167 2.20772 2.01725 2.19117 2.02496C2.17489 2.0312 2.15952 2.03958 2.14546 2.04989C2.10446 2.07458 2.07075 2.10972 2.04779 2.15171C2.03811 2.16047 2.03155 2.17214 2.02909 2.18496C2.023 2.19619 2.01813 2.20803 2.01455 2.22029C2.01287 2.22348 2.01214 2.22709 2.01247 2.23068C2.00873 2.24079 2.00595 2.25122 2.00416 2.26185C2.00174 2.27906 2.00035 2.29641 2 2.3138V12.4272C2 12.4355 2.00125 12.4445 2.00208 12.4534V12.4596C2.00208 12.4663 2.00208 12.4729 2.00374 12.4792C2.00581 12.4915 2.00901 12.5037 2.0133 12.5155V12.5178C2.0133 12.5178 2.01455 12.5201 2.01517 12.5216C2.02826 12.5619 2.04948 12.5991 2.07751 12.6309C2.08062 12.6346 2.08416 12.6377 2.08748 12.6412C2.10417 12.6586 2.12286 12.674 2.14317 12.687C2.14566 12.6884 2.14733 12.6909 2.14982 12.6924C2.15231 12.6938 2.15294 12.6936 2.1546 12.6946C2.16063 12.6982 2.16707 12.7011 2.17351 12.7042C2.17995 12.7073 2.17954 12.7084 2.18307 12.709C2.19429 12.7151 2.20613 12.72 2.21839 12.7235L2.23086 12.7271L8.0907 14.5444C8.09506 14.5459 8.09943 14.5444 8.10379 14.5465C8.1132 14.5499 8.12286 14.5524 8.13267 14.5542C8.14839 14.5564 8.1642 14.5577 8.18005 14.5582H8.18296C8.18587 14.5582 8.18836 14.5569 8.19127 14.5569C8.21144 14.557 8.23154 14.5545 8.25112 14.5496C8.25631 14.5484 8.26068 14.5463 8.26566 14.5451C8.2746 14.5426 8.28312 14.5399 8.29185 14.5365C8.29564 14.5356 8.29939 14.5344 8.30307 14.533C8.32407 14.5247 8.34396 14.5138 8.36229 14.5006C8.36665 14.4975 8.37039 14.4935 8.37476 14.4902C8.38466 14.483 8.39404 14.4751 8.40281 14.4665C8.4105 14.4588 8.41611 14.4501 8.42359 14.4422C8.43107 14.4343 8.43502 14.4293 8.44 14.4214V14.4202C8.45451 14.3982 8.46624 14.3744 8.47491 14.3495C8.47637 14.3454 8.47928 14.3423 8.48053 14.3381C8.48177 14.3339 8.48302 14.325 8.48447 14.3186C8.48593 14.3121 8.48697 14.3117 8.4878 14.308C8.48863 14.3042 8.4878 14.3005 8.4878 14.2968C8.49021 14.283 8.4916 14.2691 8.49195 14.2552C8.49195 14.2521 8.49299 14.2488 8.49299 14.2456V12.7389H9.57769C9.66035 12.7389 9.73963 12.7061 9.79809 12.6476C9.85654 12.5892 9.88938 12.5099 9.88938 12.4272V2.31172C9.88938 2.22952 9.85691 2.15064 9.79904 2.09227C9.74117 2.03389 9.66259 2.00074 9.58039 2.00002ZM2.62339 2.73354L7.87231 4.36266V13.8244L2.62339 12.1964V2.73354ZM8.42442 3.93668C8.44349 3.95979 8.4591 3.98555 8.47076 4.01315C8.4591 3.98555 8.44349 3.95979 8.42442 3.93668ZM8.42297 3.93502C8.40575 3.91421 8.38599 3.89564 8.36416 3.87974C8.38616 3.8956 8.40594 3.91433 8.42297 3.93543V3.93502ZM8.35502 3.87268C8.33117 3.85619 8.30507 3.84324 8.27751 3.83424C8.30507 3.84397 8.33115 3.85747 8.35502 3.87434V3.87268ZM7.29027 8.4099V9.2203C7.29027 9.30297 7.25743 9.38225 7.19898 9.4407C7.14052 9.49916 7.06124 9.532 6.97858 9.532C6.89591 9.532 6.81663 9.49916 6.75818 9.4407C6.69972 9.38225 6.66688 9.30297 6.66688 9.2203V8.4099C6.66688 8.32723 6.69972 8.24795 6.75818 8.1895C6.81663 8.13104 6.89591 8.09821 6.97858 8.09821C7.06124 8.09821 7.14052 8.13104 7.19898 8.1895C7.25743 8.24795 7.29027 8.32723 7.29027 8.4099Z" fill="#717071"/>
<path fill-rule="evenodd" clip-rule="evenodd" d="M14.4204 8.16196C14.5278 8.26642 14.5263 8.43938 14.4171 8.54197L12.7234 10.1334C12.5556 10.291 12.2805 10.172 12.2805 9.94178V9.00245L10.6767 9.01531C10.5307 9.01648 10.4117 8.89845 10.4117 8.75245V7.78888C10.4117 7.64453 10.5281 7.52718 10.6724 7.52602L12.2805 7.51313V6.70309C12.2805 6.47066 12.56 6.3526 12.7267 6.51465L14.4204 8.16196Z" fill="#717071"/>
</svg>
