<svg width="21" height="23" viewBox="0 0 21 23" fill="none" xmlns="http://www.w3.org/2000/svg">
<g filter="url(#filter0_d)">
<path d="M11.5804 2.00002H4.31169C4.28857 1.99971 4.2655 2.0025 4.24312 2.00834C4.22517 2.01167 4.20772 2.01725 4.19117 2.02496C4.17489 2.0312 4.15952 2.03958 4.14546 2.04989C4.10446 2.07458 4.07075 2.10972 4.04779 2.15171C4.03811 2.16047 4.03155 2.17214 4.02909 2.18496C4.023 2.19619 4.01813 2.20803 4.01455 2.22029C4.01287 2.22348 4.01214 2.22709 4.01247 2.23068C4.00873 2.24079 4.00595 2.25122 4.00416 2.26185C4.00174 2.27906 4.00035 2.29641 4 2.3138V12.4272C4 12.4355 4.00125 12.4445 4.00208 12.4534V12.4596C4.00208 12.4663 4.00208 12.4729 4.00374 12.4792C4.00581 12.4915 4.00901 12.5037 4.0133 12.5155V12.5155V12.5178C4.0133 12.5178 4.01455 12.5201 4.01517 12.5216C4.02826 12.5619 4.04948 12.5991 4.07751 12.6309C4.08062 12.6346 4.08416 12.6377 4.08748 12.6412C4.10417 12.6586 4.12286 12.674 4.14317 12.687C4.14566 12.6884 4.14733 12.6909 4.14982 12.6924C4.15231 12.6938 4.15294 12.6936 4.1546 12.6946C4.16063 12.6982 4.16707 12.7011 4.17351 12.7042C4.17995 12.7073 4.17954 12.7084 4.18307 12.709C4.19429 12.7151 4.20613 12.72 4.21839 12.7235L4.23086 12.7271L10.0907 14.5444C10.0951 14.5459 10.0994 14.5444 10.1038 14.5465C10.1132 14.5499 10.1229 14.5524 10.1327 14.5542C10.1484 14.5564 10.1642 14.5577 10.1801 14.5582H10.183C10.1859 14.5582 10.1884 14.5569 10.1913 14.5569C10.2114 14.557 10.2315 14.5545 10.2511 14.5496C10.2563 14.5484 10.2607 14.5463 10.2657 14.5451C10.2746 14.5426 10.2831 14.5399 10.2918 14.5365C10.2956 14.5356 10.2994 14.5344 10.3031 14.533C10.3241 14.5247 10.344 14.5138 10.3623 14.5006C10.3667 14.4975 10.3704 14.4935 10.3748 14.4902C10.3847 14.483 10.394 14.4751 10.4028 14.4665C10.4105 14.4588 10.4161 14.4501 10.4236 14.4422C10.4311 14.4343 10.435 14.4293 10.44 14.4214V14.4202C10.4545 14.3982 10.4662 14.3744 10.4749 14.3495C10.4764 14.3454 10.4793 14.3423 10.4805 14.3381C10.4818 14.3339 10.483 14.325 10.4845 14.3186C10.4859 14.3121 10.487 14.3117 10.4878 14.308C10.4886 14.3042 10.4878 14.3005 10.4878 14.2968C10.4902 14.283 10.4916 14.2691 10.492 14.2552C10.492 14.2521 10.493 14.2488 10.493 14.2456V12.7389H11.5777C11.6604 12.7389 11.7396 12.7061 11.7981 12.6476C11.8565 12.5892 11.8894 12.5099 11.8894 12.4272V2.31172C11.8894 2.22952 11.8569 2.15064 11.799 2.09227C11.7412 2.03389 11.6626 2.00074 11.5804 2.00002V2.00002ZM4.62339 2.73354L9.87231 4.36266V13.8244L4.62339 12.1964V2.73354ZM10.4244 3.93668C10.4435 3.95979 10.4591 3.98555 10.4708 4.01315C10.4591 3.98555 10.4435 3.95979 10.4244 3.93668V3.93668ZM10.423 3.93502C10.4058 3.91421 10.386 3.89564 10.3642 3.87974C10.3862 3.8956 10.4059 3.91433 10.423 3.93543V3.93502ZM10.355 3.87268C10.3312 3.85619 10.3051 3.84324 10.2775 3.83424C10.3051 3.84397 10.3311 3.85747 10.355 3.87434V3.87268ZM9.29027 8.4099V9.2203C9.29027 9.30297 9.25743 9.38225 9.19898 9.4407C9.14052 9.49916 9.06124 9.532 8.97858 9.532C8.89591 9.532 8.81663 9.49916 8.75818 9.4407C8.69972 9.38225 8.66688 9.30297 8.66688 9.2203V8.4099C8.66688 8.32723 8.69972 8.24795 8.75818 8.1895C8.81663 8.13104 8.89591 8.09821 8.97858 8.09821C9.06124 8.09821 9.14052 8.13104 9.19898 8.1895C9.25743 8.24795 9.29027 8.32723 9.29027 8.4099V8.4099Z" fill="#717071"/>
<path fill-rule="evenodd" clip-rule="evenodd" d="M16.4204 8.16171C16.5278 8.26617 16.5263 8.43913 16.4171 8.54172L14.7234 10.1331C14.5556 10.2908 14.2805 10.1718 14.2805 9.94154V9.0022L12.6767 9.01506C12.5307 9.01624 12.4117 8.89821 12.4117 8.75221V7.78864C12.4117 7.64428 12.5281 7.52694 12.6724 7.52578L14.2805 7.51288V6.70284C14.2805 6.47041 14.56 6.35235 14.7267 6.5144L16.4204 8.16171Z" fill="#717071"/>
</g>
<defs>
<filter id="filter0_d" x="-2" y="0" width="24" height="24" filterUnits="userSpaceOnUse" color-interpolation-filters="sRGB">
<feFlood flood-opacity="0" result="BackgroundImageFix"/>
<feColorMatrix in="SourceAlpha" type="matrix" values="0 0 0 0 0 0 0 0 0 0 0 0 0 0 0 0 0 0 127 0" result="hardAlpha"/>
<feOffset dy="4"/>
<feGaussianBlur stdDeviation="2"/>
<feComposite in2="hardAlpha" operator="out"/>
<feColorMatrix type="matrix" values="0 0 0 0 0 0 0 0 0 0 0 0 0 0 0 0 0 0 0.25 0"/>
<feBlend mode="normal" in2="BackgroundImageFix" result="effect1_dropShadow"/>
<feBlend mode="normal" in="SourceGraphic" in2="effect1_dropShadow" result="shape"/>
</filter>
</defs>
</svg>
