<svg width="32" height="32" viewBox="0 0 32 32" fill="none" xmlns="http://www.w3.org/2000/svg">
<g filter="url(#filter0_d)">
<path d="M28 9C28 7.89543 27.1046 7 26 7H6C4.89543 7 4 7.89543 4 9V9.6143C4 9.78147 4.08355 9.93759 4.22265 10.0303L14.8905 17.1423C15.5623 17.5901 16.4375 17.5901 17.1093 17.1423L27.7773 10.0303C27.9164 9.93754 28 9.78142 28 9.61424V9Z" fill="white"/>
<path d="M28 12.8529C28 12.6931 27.822 12.5979 27.6891 12.6865L18.2187 19C16.8751 19.8957 15.1247 19.8957 13.7811 19L4.31094 12.6865C4.17803 12.5979 4 12.6932 4 12.8529L4 23C4 24.1046 4.89543 25 6 25H26C27.1046 25 28 24.1046 28 23V12.8529Z" fill="white"/>
</g>
<defs>
<filter id="filter0_d" x="-4" y="-4" width="40" height="40" filterUnits="userSpaceOnUse" color-interpolation-filters="sRGB">
<feFlood flood-opacity="0" result="BackgroundImageFix"/>
<feColorMatrix in="SourceAlpha" type="matrix" values="0 0 0 0 0 0 0 0 0 0 0 0 0 0 0 0 0 0 127 0" result="hardAlpha"/>
<feOffset/>
<feGaussianBlur stdDeviation="2"/>
<feColorMatrix type="matrix" values="0 0 0 0 0 0 0 0 0 0 0 0 0 0 0 0 0 0 0.25 0"/>
<feBlend mode="normal" in2="BackgroundImageFix" result="effect1_dropShadow"/>
<feBlend mode="normal" in="SourceGraphic" in2="effect1_dropShadow" result="shape"/>
</filter>
</defs>
</svg>
