<svg width="32" height="32" viewBox="0 0 32 32" fill="none" xmlns="http://www.w3.org/2000/svg">
<rect width="32" height="32" rx="4" fill="#FFD7D7"/>
<path d="M9.59985 19.1996L13.2687 15.5308C13.5687 15.2309 13.9756 15.0624 14.3999 15.0624C14.8241 15.0624 15.231 15.2309 15.5311 15.5308L17.5999 17.5996L18.8687 16.3308C19.1687 16.0309 19.5756 15.8624 19.9999 15.8624C20.4241 15.8624 20.831 16.0309 21.1311 16.3308L22.3999 17.5996V11.1996C22.3999 10.7753 22.2313 10.3683 21.9312 10.0682C21.6312 9.76818 21.2242 9.59961 20.7999 9.59961H11.1999C10.7755 9.59961 10.3685 9.76818 10.0685 10.0682C9.76842 10.3683 9.59985 10.7753 9.59985 11.1996V19.1996Z" fill="#FC8F90"/>
<path d="M9.59985 19.1996L13.2687 15.5308C13.5687 15.2309 13.9756 15.0624 14.3999 15.0624C14.8241 15.0624 15.231 15.2309 15.5311 15.5308L17.5999 17.5996L18.8687 16.3308C19.1687 16.0309 19.5756 15.8624 19.9999 15.8624C20.4241 15.8624 20.831 16.0309 21.1311 16.3308L22.3999 17.5996M9.59985 19.1996V20.7996M9.59985 19.1996V11.1996M22.3999 17.5996V20.7996M22.3999 17.5996V11.1996M22.3999 20.7996C22.3999 21.224 22.2313 21.6309 21.9312 21.931C21.6312 22.231 21.2242 22.3996 20.7999 22.3996H11.1999C10.7755 22.3996 10.3685 22.231 10.0685 21.931C9.76842 21.6309 9.59985 21.224 9.59985 20.7996M22.3999 20.7996V11.1996M22.3999 11.1996C22.3999 10.7753 22.2313 10.3683 21.9312 10.0682C21.6312 9.76818 21.2242 9.59961 20.7999 9.59961H11.1999C10.7755 9.59961 10.3685 9.76818 10.0685 10.0682C9.76842 10.3683 9.59985 10.7753 9.59985 11.1996M9.59985 11.1996V20.7996" stroke="#FC8F90" stroke-width="2" stroke-linecap="round" stroke-linejoin="round"/>
<ellipse cx="17.9198" cy="13.12" rx="1.12" ry="1.12" fill="white"/>
</svg>
